{
  "hosting": {
    "public": ".",
    "ignore": [
      "firebase.json",
      "**/*secret*",
      "**/node_modules/**"
    ],
    "rewrites": [
      {
        "source": "**",
        "destination": "/index.html"
      }
    ],
    "headers": [ {
      "source": "**/*",
      "headers": [ {
        "key": "Access-Control-Allow-Origin",
        "value": "*"
      } ]
    } ]
  },
  "database": {
    "rules": "database.rules.json"
  },
  "emulators": {
    "database": {
      "port": 9000
    },
    "auth": {
      "port": 9099
    },
    "storage": {
      "port": 9091
    },
    "ui": {
      "enabled": true,
      "host": "localhost",
      "port": 4000
    }
  }
}

